…
``` r
dum <- train %>% 
  recipe(~ .) %>% 
  step_dummy(Neighborhood) %>%
  prep(training = train) %>% 
  bake(newdata = train)
dum
```

    ## # A tibble: 383 x 4
    ##    SalePrice GrLivArea Neighborhood_Edwards Neighborhood_NAmes
    ##        <int>     <int>                <dbl>              <dbl>
    ##  1    118000      1077                    0                  0
    ##  2    157000      1253                    0                  1
    ##  3    132000       854                    0                  0
    ##  4    149000      1004                    0                  1
    ##  5    139000      1339                    0                  1
    ##  6    134800       900                    0                  1
    ##  7    207500      1600                    0                  1
    ##  8     68500       520                    0                  0
    ##  9    165500      1700                    0                  1
    ## 10    153000      1297                    0                  1
    ## # ... with 373 more rows
…
