…
# MasVnrArea {"train": 8, "test": 15}
train$MasVnrArea[is.na(train$MasVnrArea)] <- 0
test$MasVnrArea[is.na(test$MasVnrArea)] <- 0
```

``` r
# Reduce Neighborhood into 3 categories
train %>%
  group_by(Neighborhood) %>%
  summarise(mean = mean(log(SalePrice)), n = n()) %>%
  arrange(desc(mean))
```

    ## # A tibble: 25 x 3
    ##    Neighborhood  mean     n
    ##    <chr>        <dbl> <int>
    ##  1 NoRidge       12.7    41
    ##  2 NridgHt       12.6    77
    ##  3 StoneBr       12.6    25
    ##  4 Timber        12.4    38
    ##  5 Veenker       12.3    11
    ##  6 Somerst       12.3    86
    ##  7 ClearCr       12.2    28
    ##  8 Crawfor       12.2    51
    ##  9 Blmngtn       12.2    17
    ## 10 CollgCr       12.2   150
    ## # ... with 15 more rows
…
    ## 
    ## Correlation method: 'pearson'
    ## Missing treated using: 'pairwise.complete.obs'

``` r
sales.price.cor %>%
  arrange(desc(SalePrice))
```

    ## # A tibble: 49 x 2
    ##    rowname      SalePrice
    ##    <chr>            <dbl>
    ##  1 OverallQual      0.801
    ##  2 GrLivArea        0.721
    ##  3 GarageCars       0.649
    ##  4 TotalBsmtSF      0.647
    ##  5 GarageArea       0.637
    ##  6 1stFlrSF         0.625
    ##  7 BsmtQual         0.592
    ##  8 FullBath         0.559
    ##  9 GarageFinish     0.557
    ## 10 TotRmsAbvGrd     0.537
    ## # ... with 39 more rows
…
